\relax 
\catcode`"\active
\catcode`-\active
\select@language{czech}
\@writefile{toc}{\select@language{czech}}
\@writefile{lof}{\select@language{czech}}
\@writefile{lot}{\select@language{czech}}
\@writefile{toc}{\contentsline {section}{\numberline {1}Zad\'an\IeC {\'\i }}{3}}
\@writefile{toc}{\contentsline {subsection}{\numberline {1.1}Situace}{3}}
\@writefile{toc}{\contentsline {subsection}{\numberline {1.2}Implementace}{3}}
\@writefile{toc}{\contentsline {subsection}{\numberline {1.3}Po\v zadavky}{3}}
\@writefile{toc}{\contentsline {section}{\numberline {2}Sc\'ena}{4}}
\@writefile{toc}{\contentsline {section}{\numberline {3}Ter\'en}{4}}
\@writefile{lof}{\contentsline {figure}{\numberline {1}{\ignorespaces O\v c\IeC {\'\i }slov\'an\IeC {\'\i } vrchol\r u v index bufferu\relax }}{5}}
\providecommand*\caption@xref[2]{\@setref\relax\@undefined{#1}}
\newlabel{fig:indexbuffer}{{1}{5}}
\@writefile{toc}{\contentsline {section}{\numberline {4}Pohyb po ter\'enu}{5}}
\@writefile{toc}{\contentsline {subsection}{\numberline {4.1}Kamera}{5}}
\@writefile{toc}{\contentsline {subsection}{\numberline {4.2}Horizont\'aln\IeC {\'\i } pohyb}{5}}
\@writefile{toc}{\contentsline {subsection}{\numberline {4.3}Konstantn\IeC {\'\i } v\'y\v ska kamery nad ter\'enem}{6}}
\@writefile{lof}{\contentsline {figure}{\numberline {2}{\ignorespaces Zji\v st\v en\IeC {\'\i } v\'y\v sky kamery\relax }}{6}}
\newlabel{fig:vyskakamery}{{2}{6}}
\@writefile{toc}{\contentsline {section}{\numberline {5}Osv\v etlen\IeC {\'\i } sc\'eny}{7}}
\@writefile{toc}{\contentsline {section}{\numberline {6}Popis ovl\'ad\'an\IeC {\'\i }}{7}}
\@writefile{toc}{\contentsline {section}{\numberline {7}Implementovan\'a roz\v s\IeC {\'\i }\v ren\IeC {\'\i }}{7}}
\@writefile{toc}{\contentsline {subsection}{\numberline {7.1}Obarven\IeC {\'\i } ter\'enu}{7}}
\@writefile{toc}{\contentsline {subsection}{\numberline {7.2}Kamen\IeC {\'\i }}{7}}
\@writefile{toc}{\contentsline {subsection}{\numberline {7.3}Vegetace (stromy)}{7}}
\@writefile{toc}{\contentsline {subsection}{\numberline {7.4}Shadow mapping}{7}}
\@writefile{toc}{\contentsline {section}{\numberline {8}Z\'av\v er}{8}}
\bibcite{openglref}{OpenGL}
